
{
    "questions": [
        "hello",
        "hi",
        "kamusta",
        "greetings"
    ],
    "answers": [
        "Welcome to StationFive.",
        "Welcome to StationFive.",
        "Welcome to StationFive.",
        "Welcome to StationFive."
    ]
}